

================================================================
== Vivado HLS Report for 'ReadFromStream'
================================================================
* Date:           Fri Nov 10 09:03:05 2017

* Version:        2016.4 (Build 1756540 on Mon Jan 23 19:31:01 MST 2017)
* Project:        NonMaxSuppression
* Solution:       solution1
* Product family: zynq
* Target device:  xc7z030sbg485-1


================================================================
== Performance Estimates
================================================================
+ Timing (ns): 
    * Summary: 
    +--------+-------+----------+------------+
    |  Clock | Target| Estimated| Uncertainty|
    +--------+-------+----------+------------+
    |ap_clk  |   5.00|      4.85|        0.63|
    +--------+-------+----------+------------+

+ Latency (clock cycles): 
    * Summary: 
    +-----+-----+-----+-----+----------+
    |  Latency  |  Interval | Pipeline |
    | min | max | min | max |   Type   |
    +-----+-----+-----+-----+----------+
    |    1|    1|    1|    1| function |
    +-----+-----+-----+-----+----------+

    + Detail: 
        * Instance: 
        N/A

        * Loop: 
        N/A

============================================================
+ Verbose Summary: Synthesis Manager
============================================================
InlineROM: 1
ExposeGlobal: 0
============================================================
+ Verbose Summary: CDFG Model
============================================================
IsTopModel: 0
ResetActiveHigh: 1
IsCombinational: 0
IsDatapathOnly: 0
HasWiredReturn: 1
HasMFsm: 2
HasVarLatency: 0
IsPipeline: 1
IsRtlPipelined: 1
IsInstanceOverlapped: 0
IsDontTouch: 0
HasImplIP: 0
IsGatedGlobalClock: 0

+ Individual pipeline summary: 
  * Pipeline-0: initiation interval (II) = 1, depth = 2


============================================================
+ Verbose Summary: Schedule
============================================================
* Number of FSM states: 2
* Pipeline: 1
  Pipeline-0: II = 1, D = 2, States = { 1 2 }
* Dataflow Pipeline: 0

* FSM state transitions: 
1 --> 
	2  / true
2 --> 
* FSM state operations: 

 <State 1>: 4.85ns
ST_1: iCol_read (5)  [1/1] 0.00ns
:0  %iCol_read = call i11 @_ssdm_op_Read.ap_auto.i11(i11 %iCol)

ST_1: iRow_read (6)  [1/1] 0.00ns
:1  %iRow_read = call i11 @_ssdm_op_Read.ap_auto.i11(i11 %iRow)

ST_1: tmp (8)  [1/1] 2.11ns  loc: NonMaxSuppression/SuppressNonMax.cpp:113
:3  %tmp = icmp ult i11 %iRow_read, -968

ST_1: tmp_s (9)  [1/1] 2.11ns  loc: NonMaxSuppression/SuppressNonMax.cpp:113
:4  %tmp_s = icmp ult i11 %iCol_read, -128

ST_1: or_cond (10)  [1/1] 1.37ns  loc: NonMaxSuppression/SuppressNonMax.cpp:113
:5  %or_cond = and i1 %tmp, %tmp_s

ST_1: empty (13)  [1/1] 0.00ns  loc: NonMaxSuppression/SuppressNonMax.cpp:115
:0  %empty = call { i16, i16 } @_ssdm_op_Read.axis.volatile.i16P.i16P(i16* %responseStream_V_res, i16* %responseStream_V_siz)

ST_1: tmp_resp_V (14)  [1/1] 0.00ns  loc: NonMaxSuppression/SuppressNonMax.cpp:115
:1  %tmp_resp_V = extractvalue { i16, i16 } %empty, 0

ST_1: StgValue_10 (15)  [1/1] 1.57ns  loc: NonMaxSuppression/SuppressNonMax.cpp:117
:2  br label %2


 <State 2>: 1.57ns
ST_2: StgValue_11 (7)  [1/1] 0.00ns
:2  call void (...)* @_ssdm_op_SpecInterface(i16* %responseStream_V_res, i16* %responseStream_V_siz, [5 x i8]* @p_str4, i32 0, i32 0, [5 x i8]* @p_str5, i32 0, i32 0, [1 x i8]* @p_str1, [1 x i8]* @p_str1, [1 x i8]* @p_str1, i32 0, i32 0, i32 0, i32 0, [1 x i8]* @p_str1, [1 x i8]* @p_str1)

ST_2: StgValue_12 (11)  [1/1] 1.57ns  loc: NonMaxSuppression/SuppressNonMax.cpp:113
:6  br i1 %or_cond, label %1, label %2

ST_2: pixelIn_V (17)  [1/1] 0.00ns
:0  %pixelIn_V = phi i16 [ %tmp_resp_V, %1 ], [ 0, %0 ]

ST_2: StgValue_14 (18)  [1/1] 0.00ns  loc: NonMaxSuppression/SuppressNonMax.cpp:121
:1  ret i16 %pixelIn_V



============================================================
+ Verbose Summary: Timing violations
============================================================
Target clock period: 5ns, clock uncertainty: 0.625ns.

 <State 1>: 4.85ns
The critical path consists of the following:
	wire read on port 'iCol' [5]  (0 ns)
	'icmp' operation ('tmp_s', NonMaxSuppression/SuppressNonMax.cpp:113) [9]  (2.11 ns)
	'and' operation ('or_cond', NonMaxSuppression/SuppressNonMax.cpp:113) [10]  (1.37 ns)
	blocking operation 1.37 ns on control path)

 <State 2>: 1.57ns
The critical path consists of the following:
	multiplexor before 'phi' operation ('tmp.resp.V') with incoming values : ('tmp.resp.V', NonMaxSuppression/SuppressNonMax.cpp:115) [17]  (1.57 ns)


============================================================
+ Verbose Summary: Binding
============================================================
N/A
* FSMD analyzer results:
  - Output states:
 - Input state : 
  - Chain level:
	State 1
	State 2


============================================================
+ Verbose Summary: Datapath Resource usage 
============================================================
N/A
